{
  "project_info": {
    "project_number": "390353243569",
    "firebase_url": "https://auth-phonenumber-e307e.firebaseio.com",
    "project_id": "auth-phonenumber-e307e",
    "storage_bucket": "auth-phonenumber-e307e.appspot.com"
  },
  "client": [
    {
      "client_info": {
        "mobilesdk_app_id": "1:390353243569:android:8004dd27bb27196d528190",
        "android_client_info": {
          "package_name": "com.bideadmin"
        }
      },
      "oauth_client": [
        {
          "client_id": "390353243569-0f6v59qu6q79uka72t0hs10de5dgrbpe.apps.googleusercontent.com",
          "client_type": 1,
          "android_info": {
            "package_name": "com.bideadmin",
            "certificate_hash": "bae10dd7f57bd6e800624a33ec548955e2b2fcb7"
          }
        },
        {
          "client_id": "390353243569-7d5jhnm61c1r00o6jdib1ur42tg501ks.apps.googleusercontent.com",
          "client_type": 3
        }
      ],
      "api_key": [
        {
          "current_key": "AIzaSyDzg-yyDLi4XbST8XYKt24vh1XMtcjR6OQ"
        }
      ],
      "services": {
        "appinvite_service": {
          "other_platform_oauth_client": [
            {
              "client_id": "390353243569-7d5jhnm61c1r00o6jdib1ur42tg501ks.apps.googleusercontent.com",
              "client_type": 3
            }
          ]
        }
      }
    }
  ],
  "configuration_version": "1"
}